{
  "OwnerId": null,
  "ViewId": "d4a0b7a4-4a62-4051-8495-fb5d1c2cd421",
  "class": "is-link is-light",
  "createdAt": "2021-07-26T14:05:53.586Z",
  "deletedAt": null,
  "id": "29097c78-91c5-42b2-9c72-b5f594a639f3",
  "labelKey": "back",
  "order": "1",
  "params": null,
  "position": "top left",
  "slug": "/banner",
  "type": "navigation",
  "updatedAt": "2021-07-26T14:05:53.586Z"
}