{
  "OwnerId": "2cd40d9b-e4b9-41b2-9dc9-c2e9052f4cfc",
  "ViewId": "9c7a0459-756c-4295-8da2-fcd93e6d66b3",
  "class": "is-primary",
  "createdAt": "2021-07-26T14:05:53.540Z",
  "deletedAt": null,
  "id": "5af0ee8a-f1b6-4ca5-8970-4901e76af14d",
  "labelKey": "create",
  "order": "1",
  "params": null,
  "position": "top right",
  "slug": "/banner_form",
  "type": "navigation",
  "updatedAt": "2021-07-26T14:10:54.290Z"
}