{
  "ChildViewId": null,
  "ModelFieldId": "a5d6c422-043b-44ed-99b4-ef17b2a3602a",
  "OwnerId": null,
  "ViewId": "82dd0852-c5f6-4276-ac3a-e7d69f141cc1",
  "breakAfter": null,
  "canOrderBy": null,
  "canUpdate": null,
  "class": "is-2",
  "createdAt": "2020-08-28T12:10:49.194Z",
  "deletedAt": null,
  "descriptionColumn": null,
  "filters": null,
  "findType": null,
  "format": null,
  "helperTextLabelKey": null,
  "id": "f2af686c-781a-4bc5-a940-c14b824eb48f",
  "include": null,
  "labelKey": "class",
  "mask": null,
  "order": "3",
  "placeholder": null,
  "required": null,
  "updatedAt": "2020-08-28T12:10:49.194Z",
  "valueColumn": null
}