{
  "OwnerId": "2cd40d9b-e4b9-41b2-9dc9-c2e9052f4cfc",
  "createdAt": "2020-11-14T22:24:41.950Z",
  "deletedAt": null,
  "id": "790a8062-854b-42a2-b13f-7559a5c6b9b0",
  "modelName": "ModelPermission",
  "name": "ModelPermission",
  "updatedAt": "2020-11-14T22:24:41.950Z"
}