{
  "OwnerId": "2cd40d9b-e4b9-41b2-9dc9-c2e9052f4cfc",
  "ViewId": "614045e4-8f8d-45a6-9e46-d3e931adecce",
  "class": "is-link",
  "createdAt": "2021-07-26T14:07:51.565Z",
  "deletedAt": null,
  "id": "3a9301ee-43f8-45be-a882-9235279ba015",
  "labelKey": "edit",
  "order": "1",
  "params": null,
  "position": null,
  "slug": "/category_form/:id:",
  "type": "navigation",
  "updatedAt": "2021-07-26T14:11:07.611Z"
}