{
  "ModelId": "9c16a857-9808-4de0-9362-48b29f9e5f79",
  "OwnerId": "2cd40d9b-e4b9-41b2-9dc9-c2e9052f4cfc",
  "createdAt": "2020-11-14T10:03:54.506Z",
  "default": null,
  "deletedAt": null,
  "id": "abdc775c-916c-487b-a4ed-85693ff8eff0",
  "length": null,
  "modelFieldType": "DataTypes.STRING",
  "name": "placeholder",
  "selectOptions": null,
  "targetModel": null,
  "targetModelAlias": null,
  "type": "string",
  "updatedAt": "2020-12-25T21:55:07.561Z"
}