{
  "ModelId": "bc72b480-34d4-41c7-90b4-fe4155db2cf0",
  "OwnerId": "2cd40d9b-e4b9-41b2-9dc9-c2e9052f4cfc",
  "createdAt": "2021-07-26T14:05:53.475Z",
  "default": null,
  "deletedAt": null,
  "id": "412b6365-b989-4d1e-8583-e41dfc448da2",
  "length": null,
  "modelFieldType": "DataTypes.DATE",
  "name": "updatedAt",
  "selectOptions": null,
  "targetModel": null,
  "targetModelAlias": null,
  "type": "datetime",
  "updatedAt": "2021-07-26T14:05:53.544Z"
}