{
  "ModelId": "bc72b480-34d4-41c7-90b4-fe4155db2cf0",
  "OwnerId": "2cd40d9b-e4b9-41b2-9dc9-c2e9052f4cfc",
  "createdAt": "2021-07-26T14:05:53.457Z",
  "default": null,
  "deletedAt": null,
  "id": "605e4ce3-904c-49e3-932e-a7968db4f642",
  "length": null,
  "modelFieldType": "DataTypes.STRING",
  "name": "image",
  "selectOptions": null,
  "targetModel": null,
  "targetModelAlias": null,
  "type": "file",
  "updatedAt": "2021-07-26T14:05:53.535Z"
}