{
  "ModelId": "998ff786-bc2a-49cf-836b-788bc58a7e36",
  "OwnerId": "2cd40d9b-e4b9-41b2-9dc9-c2e9052f4cfc",
  "createdAt": "2021-07-26T14:06:52.115Z",
  "default": null,
  "deletedAt": null,
  "id": "4e8f4678-e289-499f-a9ac-e7746c0bbf8f",
  "length": null,
  "modelFieldType": null,
  "name": "OwnerId",
  "selectOptions": null,
  "targetModel": "User",
  "targetModelAlias": "Owner",
  "type": "belongsTo",
  "updatedAt": "2021-07-26T14:06:52.172Z"
}