{
  "ModelId": "998ff786-bc2a-49cf-836b-788bc58a7e36",
  "OwnerId": "2cd40d9b-e4b9-41b2-9dc9-c2e9052f4cfc",
  "createdAt": "2021-07-26T14:06:52.108Z",
  "default": null,
  "deletedAt": null,
  "id": "e1412501-d6e9-467b-b58c-e45215fc0a2a",
  "length": null,
  "modelFieldType": "DataTypes.DATE",
  "name": "deletedAt",
  "selectOptions": null,
  "targetModel": null,
  "targetModelAlias": null,
  "type": "datetime",
  "updatedAt": "2021-07-26T14:06:52.165Z"
}