{
  "ChildViewId": null,
  "ModelFieldId": "230dbdf3-ba98-48ce-9e93-19bca323ea8b",
  "OwnerId": "2cd40d9b-e4b9-41b2-9dc9-c2e9052f4cfc",
  "ViewId": "dddfaee7-4c57-4f72-aa3b-3a629e247b41",
  "breakAfter": false,
  "canOrderBy": false,
  "canUpdate": false,
  "class": "is-2",
  "createdAt": "2021-01-30T01:04:33.563Z",
  "deletedAt": null,
  "descriptionColumn": null,
  "filters": null,
  "findType": null,
  "format": null,
  "helperTextLabelKey": "",
  "id": "b734e3c2-ebf0-4484-b4a9-bc7e7195dd89",
  "include": null,
  "labelKey": "OwnerId",
  "mask": null,
  "order": "1",
  "placeholder": null,
  "required": false,
  "updatedAt": "2021-01-30T01:24:58.802Z",
  "valueColumn": null
}