{
  "ChildViewId": null,
  "ModelFieldId": "796649c3-ffb4-4a8c-83a0-e2626799b934",
  "OwnerId": "2cd40d9b-e4b9-41b2-9dc9-c2e9052f4cfc",
  "ViewId": "fb4049c6-a4f2-4eef-8c4d-9784695b9b38",
  "breakAfter": null,
  "canOrderBy": null,
  "canUpdate": false,
  "class": "is-2",
  "createdAt": "2020-12-03T22:31:29.890Z",
  "deletedAt": null,
  "descriptionColumn": null,
  "filters": null,
  "findType": null,
  "format": null,
  "helperTextLabelKey": null,
  "id": "05dc098c-f749-4cf3-85ed-2b44fecd0fc0",
  "include": null,
  "labelKey": "OwnerId",
  "mask": null,
  "order": "1",
  "placeholder": null,
  "required": null,
  "updatedAt": "2020-12-03T22:40:35.411Z",
  "valueColumn": null
}