{
  "ChildViewId": null,
  "ModelFieldId": "54b2254e-fff9-4ec4-ad1a-487d5f0df16a",
  "OwnerId": "2cd40d9b-e4b9-41b2-9dc9-c2e9052f4cfc",
  "ViewId": "fb4049c6-a4f2-4eef-8c4d-9784695b9b38",
  "breakAfter": null,
  "canOrderBy": null,
  "canUpdate": false,
  "class": "is-2",
  "createdAt": "2020-12-03T22:31:29.890Z",
  "deletedAt": null,
  "descriptionColumn": null,
  "filters": null,
  "findType": null,
  "format": null,
  "helperTextLabelKey": null,
  "id": "199efebc-bf43-4a9d-92e0-f4ef078a0e84",
  "include": null,
  "labelKey": "createdAt",
  "mask": null,
  "order": "1",
  "placeholder": null,
  "required": null,
  "updatedAt": "2020-12-03T22:40:35.411Z",
  "valueColumn": null
}