{
  "OwnerId": "2cd40d9b-e4b9-41b2-9dc9-c2e9052f4cfc",
  "ViewId": "80794f61-8c2b-4543-99c0-78a3ad21d887",
  "class": "has-text-danger",
  "createdAt": "2021-07-26T14:06:52.182Z",
  "deletedAt": null,
  "id": "e580babc-5b19-4122-9457-4860ae931b00",
  "labelKey": "remove",
  "order": "2",
  "params": {
    "id": ":id:"
  },
  "position": null,
  "slug": null,
  "type": "delete",
  "updatedAt": "2021-07-26T14:11:00.736Z"
}