{
  "OwnerId": "2cd40d9b-e4b9-41b2-9dc9-c2e9052f4cfc",
  "createdAt": "2021-07-26T14:12:39.394Z",
  "deletedAt": null,
  "id": "60ec597d-2353-4d7c-887a-f596099be7ff",
  "modelName": "ProductCategory",
  "name": "ProductCategory",
  "updatedAt": "2021-07-26T14:12:39.394Z"
}