{
  "ModelId": "790a8062-854b-42a2-b13f-7559a5c6b9b0",
  "OwnerId": "2cd40d9b-e4b9-41b2-9dc9-c2e9052f4cfc",
  "createdAt": "2020-11-14T22:24:41.998Z",
  "default": null,
  "deletedAt": null,
  "id": "746d6955-0332-4055-8359-1c35fea64533",
  "length": null,
  "modelFieldType": null,
  "name": "OwnerId",
  "selectOptions": null,
  "targetModel": "User",
  "targetModelAlias": "Owner",
  "type": "belongsTo",
  "updatedAt": "2020-11-14T22:24:42.037Z"
}