{
  "MenuSectionId": "2f9020dc-ee9f-446e-931a-b6217ee41c8b",
  "ModelId": "bc72b480-34d4-41c7-90b4-fe4155db2cf0",
  "OwnerId": null,
  "createdAt": "2021-07-26T14:05:53.493Z",
  "deletedAt": null,
  "filters": null,
  "id": "9c7a0459-756c-4295-8da2-fcd93e6d66b3",
  "include": null,
  "key": "list-banner",
  "labelKey": "Banner",
  "showOnMenu": true,
  "slug": "/banner",
  "type": "ListView",
  "updatedAt": "2021-07-26T14:10:54.220Z"
}