{
  "ModelId": "405cf410-c096-4b15-b7a8-97a0ed9bae72",
  "OwnerId": "2cd40d9b-e4b9-41b2-9dc9-c2e9052f4cfc",
  "createdAt": "2020-11-14T22:13:53.900Z",
  "default": null,
  "deletedAt": null,
  "id": "2de92e33-e8d2-4827-881d-6c79fbf68d76",
  "length": null,
  "modelFieldType": "DataTypes.DATE",
  "name": "createdAt",
  "selectOptions": null,
  "targetModel": null,
  "targetModelAlias": null,
  "type": "datetime",
  "updatedAt": "2020-11-14T22:13:53.941Z"
}