{
  "ModelId": "405cf410-c096-4b15-b7a8-97a0ed9bae72",
  "OwnerId": "2cd40d9b-e4b9-41b2-9dc9-c2e9052f4cfc",
  "createdAt": "2020-11-14T22:13:53.900Z",
  "default": null,
  "deletedAt": null,
  "id": "b8dd9cbb-1604-43c8-a747-a4f74c3b6900",
  "length": null,
  "modelFieldType": null,
  "name": "RoleId",
  "selectOptions": null,
  "targetModel": "Role",
  "targetModelAlias": "Role",
  "type": "belongsTo",
  "updatedAt": "2020-11-14T22:13:53.938Z"
}