{
  "ChildViewId": null,
  "ModelFieldId": "20bd21d3-585b-480c-a381-ebc8772a9496",
  "OwnerId": null,
  "ViewId": "a2e3e138-7e12-46a5-9f3f-cd8046ed31cc",
  "breakAfter": null,
  "canOrderBy": null,
  "canUpdate": false,
  "class": "is-2",
  "createdAt": "2020-11-17T23:11:43.796Z",
  "deletedAt": null,
  "descriptionColumn": null,
  "filters": null,
  "findType": null,
  "format": null,
  "helperTextLabelKey": null,
  "id": "70d2be7a-e57f-448d-9f7c-ca97268ac12b",
  "include": null,
  "labelKey": "createdAt",
  "mask": null,
  "order": "1",
  "placeholder": null,
  "required": null,
  "updatedAt": "2020-11-17T23:11:43.796Z",
  "valueColumn": null
}