{
  "MenuSectionId": null,
  "ModelId": "998ff786-bc2a-49cf-836b-788bc58a7e36",
  "OwnerId": null,
  "createdAt": "2021-07-26T14:06:52.197Z",
  "deletedAt": null,
  "filters": null,
  "id": "8a6ea2ee-3196-428d-9fcc-a33cfdc5cd13",
  "include": null,
  "key": "form-about",
  "labelKey": "About",
  "showOnMenu": false,
  "slug": "/about_form",
  "type": "FormView",
  "updatedAt": "2021-07-26T14:06:52.197Z"
}