{
  "OwnerId": "2cd40d9b-e4b9-41b2-9dc9-c2e9052f4cfc",
  "createdAt": "2021-07-26T14:09:31.159Z",
  "deletedAt": null,
  "id": "1059e6d2-3ff3-4aa3-9cad-9fc12d5f37f9",
  "modelName": "Product",
  "name": "Product",
  "updatedAt": "2021-07-26T14:09:31.159Z"
}