{
  "ModelId": "60ec597d-2353-4d7c-887a-f596099be7ff",
  "OwnerId": "2cd40d9b-e4b9-41b2-9dc9-c2e9052f4cfc",
  "createdAt": "2021-07-26T14:12:39.418Z",
  "default": null,
  "deletedAt": null,
  "id": "2fac7b31-370a-4669-922a-e8b35fc1c0db",
  "length": null,
  "modelFieldType": null,
  "name": "CategoryId",
  "selectOptions": null,
  "targetModel": "Category",
  "targetModelAlias": "Category",
  "type": "belongsTo",
  "updatedAt": "2021-07-26T14:12:39.471Z"
}