{
  "ModelId": "60ec597d-2353-4d7c-887a-f596099be7ff",
  "OwnerId": "2cd40d9b-e4b9-41b2-9dc9-c2e9052f4cfc",
  "createdAt": "2021-07-26T14:12:39.439Z",
  "default": null,
  "deletedAt": null,
  "id": "8c2c158b-d07d-4854-8082-dbdde1e2e406",
  "length": null,
  "modelFieldType": null,
  "name": "OwnerId",
  "selectOptions": null,
  "targetModel": "User",
  "targetModelAlias": "Owner",
  "type": "belongsTo",
  "updatedAt": "2021-07-26T14:12:39.489Z"
}