{
  "ModelId": "60ec597d-2353-4d7c-887a-f596099be7ff",
  "OwnerId": "2cd40d9b-e4b9-41b2-9dc9-c2e9052f4cfc",
  "createdAt": "2021-07-26T14:12:39.423Z",
  "default": null,
  "deletedAt": null,
  "id": "ca1cbaa8-cc0d-4977-9392-bd4637e1e645",
  "length": null,
  "modelFieldType": "DataTypes.DATE",
  "name": "updatedAt",
  "selectOptions": null,
  "targetModel": null,
  "targetModelAlias": null,
  "type": "datetime",
  "updatedAt": "2021-07-26T14:12:39.482Z"
}