{
  "ModelId": "7b6a5206-e3a7-4f9f-a2bc-462253cf3b8a",
  "OwnerId": "2cd40d9b-e4b9-41b2-9dc9-c2e9052f4cfc",
  "createdAt": "2020-08-28T12:10:49.037Z",
  "default": null,
  "deletedAt": null,
  "id": "7d131087-a605-4442-a46a-1283fd7206eb",
  "length": null,
  "modelFieldType": null,
  "name": "ViewActions",
  "selectOptions": null,
  "targetModel": "ViewAction",
  "targetModelAlias": "ViewAction",
  "type": "hasMany",
  "updatedAt": "2020-11-15T05:45:43.374Z"
}