{
  "ModelId": "7b6a5206-e3a7-4f9f-a2bc-462253cf3b8a",
  "OwnerId": "2cd40d9b-e4b9-41b2-9dc9-c2e9052f4cfc",
  "createdAt": "2020-08-28T12:10:49.037Z",
  "default": null,
  "deletedAt": null,
  "id": "c6e8fe39-fc05-4aac-8ed6-d9227e8f7169",
  "length": null,
  "modelFieldType": null,
  "name": "ModelId",
  "selectOptions": null,
  "targetModel": "Model",
  "targetModelAlias": "Model",
  "type": "belongsTo",
  "updatedAt": "2020-11-15T05:45:43.378Z"
}