{
  "OwnerId": "2cd40d9b-e4b9-41b2-9dc9-c2e9052f4cfc",
  "ViewId": "1bc387fc-8a19-456b-8513-929ae82a37b0",
  "class": "is-link",
  "createdAt": "2020-11-17T23:11:43.769Z",
  "deletedAt": null,
  "id": "f76435e9-2716-4d3c-a227-96acf69a1bc6",
  "labelKey": "create",
  "order": "1",
  "params": null,
  "position": "top right",
  "slug": "/model_validation_form",
  "type": "navigation",
  "updatedAt": "2020-11-17T23:16:25.571Z"
}