{
  "ModelId": "29de1456-e5c8-4086-b05e-68e581fe3734",
  "OwnerId": "2cd40d9b-e4b9-41b2-9dc9-c2e9052f4cfc",
  "createdAt": "2020-08-28T12:10:49.024Z",
  "default": null,
  "deletedAt": null,
  "id": "0d8831e8-af76-4d93-8195-a0abd8824e8c",
  "length": 255,
  "modelFieldType": "DataTypes.STRING",
  "name": "name",
  "selectOptions": null,
  "targetModel": null,
  "targetModelAlias": null,
  "type": "string",
  "updatedAt": "2020-11-17T23:15:45.107Z"
}