{
  "OwnerId": "2cd40d9b-e4b9-41b2-9dc9-c2e9052f4cfc",
  "ViewId": "dddfaee7-4c57-4f72-aa3b-3a629e247b41",
  "class": "has-text-danger",
  "createdAt": "2021-01-30T01:04:33.503Z",
  "deletedAt": null,
  "id": "389b1fb9-ea37-4e79-ad78-0ad0a9a0fa83",
  "labelKey": "remove",
  "order": "2",
  "params": {
    "id": ":id:"
  },
  "position": null,
  "slug": null,
  "type": "delete",
  "updatedAt": "2021-01-30T01:24:58.805Z"
}