{
  "OwnerId": null,
  "ViewId": "91c6da08-a1cc-4478-be07-b78a3ab90b65",
  "class": "is-primary",
  "createdAt": "2020-11-14T22:24:42.050Z",
  "deletedAt": null,
  "id": "84bf4ed2-9f01-4538-8707-4e5288a5cac9",
  "labelKey": "save",
  "order": "1",
  "params": null,
  "position": "form end",
  "slug": "/model_permission",
  "type": "submit",
  "updatedAt": "2020-11-14T22:24:42.050Z"
}