{
  "MenuSectionId": "2f9020dc-ee9f-446e-931a-b6217ee41c8b",
  "ModelId": "1059e6d2-3ff3-4aa3-9cad-9fc12d5f37f9",
  "OwnerId": null,
  "createdAt": "2021-07-26T14:09:31.220Z",
  "deletedAt": null,
  "filters": null,
  "id": "9ec34848-1c3c-4927-8c4b-e5ee7f4c7570",
  "include": null,
  "key": "list-product",
  "labelKey": "Product",
  "showOnMenu": true,
  "slug": "/product",
  "type": "ListView",
  "updatedAt": "2021-07-26T14:11:14.320Z"
}