{
  "ModelId": "36c5b0a7-ec27-4b52-a748-430d35cfa999",
  "OwnerId": "2cd40d9b-e4b9-41b2-9dc9-c2e9052f4cfc",
  "createdAt": "2020-12-03T22:31:29.818Z",
  "deletedAt": null,
  "id": "7cd5fd39-782e-4541-8402-ac78f434eefc",
  "rule": null,
  "updatedAt": "2020-12-03T22:31:29.860Z"
}