{
  "ModelId": "36c5b0a7-ec27-4b52-a748-430d35cfa999",
  "OwnerId": "2cd40d9b-e4b9-41b2-9dc9-c2e9052f4cfc",
  "createdAt": "2020-12-03T22:31:29.813Z",
  "deletedAt": null,
  "id": "976eab39-93d0-4a60-a63d-e6cd25ce52e4",
  "rule": null,
  "updatedAt": "2020-12-03T22:31:29.856Z"
}