{
  "OwnerId": "2cd40d9b-e4b9-41b2-9dc9-c2e9052f4cfc",
  "ViewId": "c897aeb3-ea2b-412c-85eb-5ca4467368e1",
  "class": "is-link is-light",
  "createdAt": "2020-08-28T12:10:48.969Z",
  "deletedAt": null,
  "id": "35202fa2-da22-4973-b2af-1c16fbc4ddb0",
  "labelKey": "back",
  "order": "1",
  "params": null,
  "position": "top left",
  "slug": "/users",
  "type": "navigation",
  "updatedAt": "2021-01-23T16:29:25.651Z"
}