{
  "ModelId": "0aae525b-862c-4079-8f53-150d0fb791e2",
  "OwnerId": "2cd40d9b-e4b9-41b2-9dc9-c2e9052f4cfc",
  "createdAt": "2020-11-17T23:11:43.747Z",
  "default": null,
  "deletedAt": null,
  "id": "a0bbf99c-3f20-4d1a-b2d1-2864412ec0f5",
  "length": null,
  "modelFieldType": "DataTypes.DATE",
  "name": "deletedAt",
  "selectOptions": null,
  "targetModel": null,
  "targetModelAlias": null,
  "type": "datetime",
  "updatedAt": "2020-11-17T23:11:43.774Z"
}