{
  "ChildViewId": null,
  "ModelFieldId": "da70982d-8219-4a07-b494-450b9af56e07",
  "OwnerId": null,
  "ViewId": "809ccac3-9af6-48ce-a4e7-81cdf410a1e9",
  "breakAfter": null,
  "canOrderBy": null,
  "canUpdate": null,
  "class": "is-2",
  "createdAt": "2020-08-28T12:10:49.206Z",
  "deletedAt": null,
  "descriptionColumn": null,
  "filters": null,
  "findType": null,
  "format": null,
  "helperTextLabelKey": null,
  "id": "3de008a3-f6cc-4854-9791-d6ff53f56d9b",
  "include": null,
  "labelKey": "params",
  "mask": null,
  "order": "6",
  "placeholder": null,
  "required": null,
  "updatedAt": "2020-08-28T12:10:49.206Z",
  "valueColumn": null
}