{
  "ChildViewId": null,
  "ModelFieldId": "358d4d47-9b21-47ef-9940-6fce22e72300",
  "OwnerId": null,
  "ViewId": "809ccac3-9af6-48ce-a4e7-81cdf410a1e9",
  "breakAfter": null,
  "canOrderBy": null,
  "canUpdate": null,
  "class": "is-2",
  "createdAt": "2020-08-28T12:10:49.206Z",
  "deletedAt": null,
  "descriptionColumn": null,
  "filters": null,
  "findType": null,
  "format": null,
  "helperTextLabelKey": null,
  "id": "ad7aca39-cda2-4f8c-942e-eefc57631cdd",
  "include": null,
  "labelKey": "labelKey",
  "mask": null,
  "order": "1",
  "placeholder": null,
  "required": null,
  "updatedAt": "2020-08-28T12:10:49.206Z",
  "valueColumn": null
}