{
  "ModelId": "6a70bba5-a02d-4943-b559-4cc5862d8e99",
  "OwnerId": null,
  "createdAt": "2020-08-28T12:10:49.076Z",
  "default": null,
  "deletedAt": null,
  "id": "febcd359-0cf7-40f9-80d6-fcc4cb47bd11",
  "length": null,
  "modelFieldType": null,
  "name": "ViewId",
  "selectOptions": null,
  "targetModel": "View",
  "targetModelAlias": "View",
  "type": "belongsTo",
  "updatedAt": "2020-08-28T12:10:49.076Z"
}