{
  "ModelId": "1059e6d2-3ff3-4aa3-9cad-9fc12d5f37f9",
  "OwnerId": "2cd40d9b-e4b9-41b2-9dc9-c2e9052f4cfc",
  "createdAt": "2021-07-26T14:09:31.201Z",
  "default": null,
  "deletedAt": null,
  "id": "8e47edc3-2bef-4c57-acef-d5141f908f17",
  "length": null,
  "modelFieldType": "DataTypes.DATE",
  "name": "deletedAt",
  "selectOptions": null,
  "targetModel": null,
  "targetModelAlias": null,
  "type": "datetime",
  "updatedAt": "2021-07-26T14:09:58.811Z"
}