{
  "OwnerId": "2cd40d9b-e4b9-41b2-9dc9-c2e9052f4cfc",
  "ViewId": "8d301ac4-c370-4d56-b79e-72ebeb39b7f2",
  "class": "is-info",
  "createdAt": "2021-07-26T14:09:31.298Z",
  "deletedAt": null,
  "id": "125c5cb3-f41d-490e-a51a-d3ee00bb1ce9",
  "labelKey": "save",
  "order": "1",
  "params": null,
  "position": "form end",
  "slug": "/product",
  "type": "submit",
  "updatedAt": "2021-07-26T14:23:19.457Z"
}