{
  "OwnerId": "2cd40d9b-e4b9-41b2-9dc9-c2e9052f4cfc",
  "ViewId": "8d301ac4-c370-4d56-b79e-72ebeb39b7f2",
  "class": "is-link is-light",
  "createdAt": "2021-07-26T14:09:31.298Z",
  "deletedAt": null,
  "id": "26ae1c35-3335-4bc4-bbc7-d216e462447e",
  "labelKey": "back",
  "order": "1",
  "params": null,
  "position": "top left",
  "slug": "/product",
  "type": "navigation",
  "updatedAt": "2021-07-26T14:23:19.462Z"
}