{
  "ModelId": "bc72b480-34d4-41c7-90b4-fe4155db2cf0",
  "OwnerId": "2cd40d9b-e4b9-41b2-9dc9-c2e9052f4cfc",
  "createdAt": "2021-07-26T14:05:53.479Z",
  "deletedAt": null,
  "id": "02d58b96-8845-4529-8371-8360f4b51c51",
  "rule": null,
  "updatedAt": "2021-07-26T14:05:53.552Z"
}