{
  "ChildViewId": null,
  "ModelFieldId": "862df691-0750-45e5-995d-596a1e8ca15c",
  "OwnerId": "2cd40d9b-e4b9-41b2-9dc9-c2e9052f4cfc",
  "ViewId": "614045e4-8f8d-45a6-9e46-d3e931adecce",
  "breakAfter": false,
  "canOrderBy": false,
  "canUpdate": false,
  "class": "is-2",
  "createdAt": "2021-07-26T14:07:51.597Z",
  "deletedAt": null,
  "descriptionColumn": null,
  "filters": null,
  "findType": null,
  "format": null,
  "helperTextLabelKey": "",
  "id": "473908f1-a98c-4bc7-a078-d7dc7172ffc9",
  "include": null,
  "labelKey": "OwnerId",
  "mask": null,
  "order": "1",
  "placeholder": null,
  "required": false,
  "updatedAt": "2021-07-26T14:11:07.605Z",
  "valueColumn": null
}