{
  "ChildViewId": null,
  "ModelFieldId": "0c7fdf93-c577-46db-886e-7b5e3a3122e4",
  "OwnerId": null,
  "ViewId": "d25d6bfd-c706-4adf-9c1d-1d411784d9be",
  "breakAfter": null,
  "canOrderBy": null,
  "canUpdate": null,
  "class": "is-2",
  "createdAt": "2021-07-26T14:07:51.597Z",
  "deletedAt": null,
  "descriptionColumn": null,
  "filters": null,
  "findType": null,
  "format": null,
  "helperTextLabelKey": null,
  "id": "6712ee90-a984-4518-a080-c57a783d930e",
  "include": null,
  "labelKey": "name",
  "mask": null,
  "order": "0",
  "placeholder": null,
  "required": null,
  "updatedAt": "2021-07-26T14:07:51.597Z",
  "valueColumn": null
}