{
  "OwnerId": "2cd40d9b-e4b9-41b2-9dc9-c2e9052f4cfc",
  "createdAt": "2021-07-26T14:05:53.418Z",
  "deletedAt": null,
  "id": "bc72b480-34d4-41c7-90b4-fe4155db2cf0",
  "modelName": "Banner",
  "name": "Banner",
  "updatedAt": "2021-07-26T14:05:53.418Z"
}