{
  "ChildViewId": null,
  "ModelFieldId": "6128d434-ee25-4a92-8420-f9c8173e0d7d",
  "OwnerId": "2cd40d9b-e4b9-41b2-9dc9-c2e9052f4cfc",
  "ViewId": "84c403ef-e7b3-42d5-bce4-e6ad0d07f8ce",
  "breakAfter": null,
  "canOrderBy": null,
  "canUpdate": null,
  "class": "is-2",
  "createdAt": "2020-08-26T23:54:16.288Z",
  "deletedAt": null,
  "descriptionColumn": null,
  "filters": null,
  "findType": null,
  "format": null,
  "helperTextLabelKey": null,
  "id": "442c905f-c069-4fb5-b3ec-ccf3a96b5371",
  "include": null,
  "labelKey": "function",
  "mask": null,
  "order": "0",
  "placeholder": null,
  "required": null,
  "updatedAt": "2020-12-25T19:02:01.795Z",
  "valueColumn": null
}