{
  "ModelId": "fc30b20c-aeb5-4790-a694-87b874cbaf98",
  "OwnerId": "2cd40d9b-e4b9-41b2-9dc9-c2e9052f4cfc",
  "createdAt": "2020-08-28T12:10:48.944Z",
  "default": null,
  "deletedAt": null,
  "id": "2e86bb69-7026-46e7-976a-ef65ab1b6e7c",
  "length": null,
  "modelFieldType": null,
  "name": "LanguageId",
  "selectOptions": null,
  "targetModel": "Language",
  "targetModelAlias": "Language",
  "type": "belongsTo",
  "updatedAt": "2021-04-10T13:06:41.818Z"
}