{
  "MenuSectionId": null,
  "ModelId": "36c5b0a7-ec27-4b52-a748-430d35cfa999",
  "OwnerId": null,
  "createdAt": "2020-12-03T22:31:29.876Z",
  "deletedAt": null,
  "filters": null,
  "id": "33fb85e4-d1c8-42e5-848e-642c0da2f156",
  "include": null,
  "key": "form-menu_section",
  "labelKey": "MenuSection",
  "showOnMenu": false,
  "slug": "/menu_section_form",
  "type": "FormView",
  "updatedAt": "2020-12-03T22:31:29.876Z"
}