{
  "ChildViewId": null,
  "ModelFieldId": "d1f47849-02c3-4e48-9f4b-c39afe93493d",
  "OwnerId": null,
  "ViewId": "e7565785-4b86-4e3c-8bc2-6a628dabbdb3",
  "breakAfter": null,
  "canOrderBy": null,
  "canUpdate": null,
  "class": "is-2",
  "createdAt": "2020-08-29T14:10:34.770Z",
  "deletedAt": null,
  "descriptionColumn": null,
  "filters": null,
  "findType": null,
  "format": null,
  "helperTextLabelKey": null,
  "id": "8cf0ccbb-1b08-4e15-9f41-3b639c9b3687",
  "include": null,
  "labelKey": "Users",
  "mask": null,
  "order": "3",
  "placeholder": null,
  "required": null,
  "updatedAt": "2020-08-29T14:23:40.483Z",
  "valueColumn": null
}