{
  "ModelId": "72c405ec-6078-4753-bf41-c6b774131ca8",
  "OwnerId": "2cd40d9b-e4b9-41b2-9dc9-c2e9052f4cfc",
  "createdAt": "2020-08-28T12:16:45.662Z",
  "default": null,
  "deletedAt": null,
  "id": "39a510cd-4953-4dbd-9b1e-c11fadd4da1e",
  "length": null,
  "modelFieldType": null,
  "name": "ViewFields",
  "selectOptions": null,
  "targetModel": "ViewField",
  "targetModelAlias": "ViewField",
  "type": "hasMany",
  "updatedAt": "2020-12-25T21:54:54.034Z"
}