{
  "ModelId": "72c405ec-6078-4753-bf41-c6b774131ca8",
  "OwnerId": "2cd40d9b-e4b9-41b2-9dc9-c2e9052f4cfc",
  "createdAt": "2020-08-28T12:10:49.024Z",
  "default": null,
  "deletedAt": null,
  "id": "a18efb23-2169-43e9-85e4-af33afe6e4a1",
  "length": 255,
  "modelFieldType": "DataTypes.STRING",
  "name": "targetModelAlias",
  "selectOptions": null,
  "targetModel": null,
  "targetModelAlias": null,
  "type": "string",
  "updatedAt": "2020-12-25T21:54:54.045Z"
}