{
  "ModelId": "72c405ec-6078-4753-bf41-c6b774131ca8",
  "OwnerId": "2cd40d9b-e4b9-41b2-9dc9-c2e9052f4cfc",
  "createdAt": "2020-08-28T12:10:49.024Z",
  "default": null,
  "deletedAt": null,
  "id": "b131f243-ff71-4908-9dee-3bf682ea25b1",
  "length": null,
  "modelFieldType": "DataTypes.STRING",
  "name": "modelFieldType",
  "selectOptions": [
    {
      "labelKey": "string",
      "value": "DataTypes.STRING"
    },
    {
      "labelKey": "integer",
      "value": "DataTypes.INTEGER"
    },
    {
      "labelKey": "decimal",
      "value": "DataTypes.DECIMAL(12, 2)"
    },
    {
      "labelKey": "text",
      "value": "DataTypes.TEXT"
    },
    {
      "labelKey": "json",
      "value": "DataTypes.JSON"
    },
    {
      "labelKey": "boolean",
      "value": "DataTypes.BOOLEAN"
    },
    {
      "labelKey": "datetime",
      "value": "DataTypes.DATE"
    },
    {
      "labelKey": "file",
      "value": "DataTypes.STRING"
    }
  ],
  "targetModel": null,
  "targetModelAlias": null,
  "type": "string",
  "updatedAt": "2020-12-25T21:54:54.042Z"
}