{
  "MenuSectionId": "8dcd077b-b723-4b33-8c80-48702c9afdf4",
  "ModelId": "5abcd236-670e-436f-81c7-3c3e44a5e270",
  "OwnerId": null,
  "createdAt": "2020-08-29T14:10:34.670Z",
  "deletedAt": null,
  "filters": null,
  "id": "e7565785-4b86-4e3c-8bc2-6a628dabbdb3",
  "include": [
    "Users"
  ],
  "key": "list-role",
  "labelKey": "Role",
  "showOnMenu": true,
  "slug": "/role",
  "type": "ListView",
  "updatedAt": "2020-12-03T22:44:35.544Z"
}