{
  "ModelId": "b566cebd-9bd0-45dd-9bf3-5c88cd8af7b9",
  "OwnerId": "2cd40d9b-e4b9-41b2-9dc9-c2e9052f4cfc",
  "createdAt": "2021-07-26T14:07:51.512Z",
  "deletedAt": null,
  "id": "25890232-6607-4547-8dcc-f719a4c9b8ac",
  "rule": null,
  "updatedAt": "2021-07-26T14:07:51.562Z"
}