{
  "ModelId": "b566cebd-9bd0-45dd-9bf3-5c88cd8af7b9",
  "OwnerId": "2cd40d9b-e4b9-41b2-9dc9-c2e9052f4cfc",
  "createdAt": "2021-07-26T14:07:51.506Z",
  "deletedAt": null,
  "id": "34d9040b-f4b8-4617-9d25-e1ba6cbee96f",
  "rule": null,
  "updatedAt": "2021-07-26T14:07:51.548Z"
}