{
  "ModelId": "36c5b0a7-ec27-4b52-a748-430d35cfa999",
  "OwnerId": "2cd40d9b-e4b9-41b2-9dc9-c2e9052f4cfc",
  "createdAt": "2020-12-03T22:31:29.805Z",
  "default": null,
  "deletedAt": null,
  "id": "3f464e67-978c-4b28-a318-ee62dc0adf29",
  "length": null,
  "modelFieldType": "DataTypes.DATE",
  "name": "updatedAt",
  "selectOptions": null,
  "targetModel": null,
  "targetModelAlias": null,
  "type": "datetime",
  "updatedAt": "2020-12-03T22:31:29.851Z"
}