{
  "ChildViewId": null,
  "ModelFieldId": "2fac7b31-370a-4669-922a-e8b35fc1c0db",
  "OwnerId": null,
  "ViewId": "3e1efc71-46e6-4182-83ca-c9ca60fa5e47",
  "breakAfter": null,
  "canOrderBy": null,
  "canUpdate": null,
  "class": "is-2",
  "createdAt": "2021-07-26T14:12:39.531Z",
  "deletedAt": null,
  "descriptionColumn": null,
  "filters": null,
  "findType": null,
  "format": null,
  "helperTextLabelKey": null,
  "id": "709b88e7-b698-426b-b971-033520177d26",
  "include": null,
  "labelKey": "CategoryId",
  "mask": null,
  "order": "0",
  "placeholder": null,
  "required": null,
  "updatedAt": "2021-07-26T14:12:39.531Z",
  "valueColumn": null
}