{
  "OwnerId": "2cd40d9b-e4b9-41b2-9dc9-c2e9052f4cfc",
  "createdAt": "2021-07-26T14:07:51.471Z",
  "deletedAt": null,
  "id": "b566cebd-9bd0-45dd-9bf3-5c88cd8af7b9",
  "modelName": "Category",
  "name": "Category",
  "updatedAt": "2021-07-26T14:07:51.471Z"
}