{
  "ModelId": "b566cebd-9bd0-45dd-9bf3-5c88cd8af7b9",
  "OwnerId": "2cd40d9b-e4b9-41b2-9dc9-c2e9052f4cfc",
  "createdAt": "2021-07-26T14:07:51.495Z",
  "default": null,
  "deletedAt": null,
  "id": "54598298-94e7-4b75-812b-b843c676bdc8",
  "length": null,
  "modelFieldType": "DataTypes.DATE",
  "name": "createdAt",
  "selectOptions": null,
  "targetModel": null,
  "targetModelAlias": null,
  "type": "datetime",
  "updatedAt": "2021-07-26T14:07:51.547Z"
}