{
  "ChildViewId": null,
  "ModelFieldId": "0bfa0aca-0e03-442f-9257-97f3dbc42d99",
  "OwnerId": null,
  "ViewId": "8a6ea2ee-3196-428d-9fcc-a33cfdc5cd13",
  "breakAfter": null,
  "canOrderBy": null,
  "canUpdate": null,
  "class": "is-2",
  "createdAt": "2021-07-26T14:06:52.215Z",
  "deletedAt": null,
  "descriptionColumn": null,
  "filters": null,
  "findType": null,
  "format": null,
  "helperTextLabelKey": null,
  "id": "722b9b82-6453-4bca-9da6-98828868192b",
  "include": null,
  "labelKey": "image1",
  "mask": null,
  "order": "1",
  "placeholder": null,
  "required": null,
  "updatedAt": "2021-07-26T14:06:52.215Z",
  "valueColumn": null
}