{
  "MenuSectionId": "8dcd077b-b723-4b33-8c80-48702c9afdf4",
  "ModelId": "d0ff17b6-1af4-407f-87ab-fa49709aca0e",
  "OwnerId": null,
  "createdAt": "2020-08-26T23:54:16.170Z",
  "deletedAt": null,
  "filters": null,
  "id": "84c403ef-e7b3-42d5-bce4-e6ad0d07f8ce",
  "include": [
    "User"
  ],
  "key": "list-log",
  "labelKey": "Log",
  "showOnMenu": true,
  "slug": "/log",
  "type": "ListView",
  "updatedAt": "2020-12-25T19:02:01.698Z"
}