{
  "ChildViewId": null,
  "ModelFieldId": "2e86bb69-7026-46e7-976a-ef65ab1b6e7c",
  "OwnerId": "2cd40d9b-e4b9-41b2-9dc9-c2e9052f4cfc",
  "ViewId": "07ba578b-e244-43dc-be4e-c8244668a303",
  "breakAfter": false,
  "canOrderBy": false,
  "canUpdate": false,
  "class": null,
  "createdAt": "2020-08-28T12:10:48.992Z",
  "deletedAt": null,
  "descriptionColumn": "name",
  "filters": null,
  "findType": "sync",
  "format": null,
  "helperTextLabelKey": "",
  "id": "51599c46-9c06-4d2f-87c9-e111d3d3f0b0",
  "include": null,
  "labelKey": "language",
  "mask": null,
  "order": "4",
  "placeholder": null,
  "required": false,
  "updatedAt": "2021-04-10T13:05:29.439Z",
  "valueColumn": "id"
}