{
  "ChildViewId": null,
  "ModelFieldId": "fdb86edc-d81a-450d-8c09-726cb55aae66",
  "OwnerId": "2cd40d9b-e4b9-41b2-9dc9-c2e9052f4cfc",
  "ViewId": "72e232e5-c57a-4002-9021-228e76b11334",
  "breakAfter": false,
  "canOrderBy": false,
  "canUpdate": false,
  "class": "is-4",
  "createdAt": "2020-12-06T19:54:00.613Z",
  "deletedAt": null,
  "descriptionColumn": null,
  "filters": null,
  "findType": null,
  "format": null,
  "helperTextLabelKey": "",
  "id": "f784b013-a394-4b99-9dda-0a8af741c87b",
  "include": null,
  "labelKey": "email",
  "mask": null,
  "order": "2",
  "placeholder": "Digite o e-mail aqui",
  "required": true,
  "updatedAt": "2021-01-23T16:29:09.529Z",
  "valueColumn": null
}