{
  "ChildViewId": null,
  "ModelFieldId": "65faff9f-3c1b-4207-8fb5-db6f8f9b433b",
  "OwnerId": "2cd40d9b-e4b9-41b2-9dc9-c2e9052f4cfc",
  "ViewId": "9c7a0459-756c-4295-8da2-fcd93e6d66b3",
  "breakAfter": false,
  "canOrderBy": false,
  "canUpdate": false,
  "class": "is-2",
  "createdAt": "2021-07-26T14:05:53.595Z",
  "deletedAt": null,
  "descriptionColumn": null,
  "filters": null,
  "findType": null,
  "format": null,
  "helperTextLabelKey": "",
  "id": "50ee748b-9558-44f7-b657-781f0a8259b4",
  "include": null,
  "labelKey": "createdAt",
  "mask": null,
  "order": "5",
  "placeholder": null,
  "required": false,
  "updatedAt": "2021-07-26T14:10:54.282Z",
  "valueColumn": null
}