{
  "ChildViewId": null,
  "ModelFieldId": "fdbe0688-26e0-4bf9-80d0-b8a119dfa5d4",
  "OwnerId": "2cd40d9b-e4b9-41b2-9dc9-c2e9052f4cfc",
  "ViewId": "9c7a0459-756c-4295-8da2-fcd93e6d66b3",
  "breakAfter": false,
  "canOrderBy": false,
  "canUpdate": false,
  "class": "is-2",
  "createdAt": "2021-07-26T14:05:53.595Z",
  "deletedAt": null,
  "descriptionColumn": null,
  "filters": null,
  "findType": null,
  "format": null,
  "helperTextLabelKey": "",
  "id": "c06a32cc-8e6b-4e27-8c9a-b405cc8c3a28",
  "include": null,
  "labelKey": "order",
  "mask": null,
  "order": "3",
  "placeholder": null,
  "required": false,
  "updatedAt": "2021-07-26T14:10:54.279Z",
  "valueColumn": null
}