{
  "ChildViewId": null,
  "ModelFieldId": "2de92e33-e8d2-4827-881d-6c79fbf68d76",
  "OwnerId": "2cd40d9b-e4b9-41b2-9dc9-c2e9052f4cfc",
  "ViewId": "6460f9f3-0c77-4f38-8eba-e39cb5668e64",
  "breakAfter": false,
  "canOrderBy": false,
  "canUpdate": false,
  "class": "is-2",
  "createdAt": "2020-11-14T22:13:53.972Z",
  "deletedAt": null,
  "descriptionColumn": null,
  "filters": null,
  "findType": null,
  "format": null,
  "helperTextLabelKey": "",
  "id": "c8d6cb95-c838-439f-b237-ed67d8ff3719",
  "include": null,
  "labelKey": "createdAt",
  "mask": null,
  "order": "2",
  "placeholder": null,
  "required": false,
  "updatedAt": "2021-01-23T15:42:40.921Z",
  "valueColumn": null
}