{
  "ChildViewId": null,
  "ModelFieldId": "aff0966c-2f26-48dd-be77-368a7d29ea08",
  "OwnerId": "2cd40d9b-e4b9-41b2-9dc9-c2e9052f4cfc",
  "ViewId": "6460f9f3-0c77-4f38-8eba-e39cb5668e64",
  "breakAfter": false,
  "canOrderBy": false,
  "canUpdate": false,
  "class": "is-2",
  "createdAt": "2020-11-14T22:13:53.972Z",
  "deletedAt": null,
  "descriptionColumn": null,
  "filters": null,
  "findType": null,
  "format": null,
  "helperTextLabelKey": "",
  "id": "f6b184a4-2aa4-4734-a692-1dc0bc473079",
  "include": null,
  "labelKey": "OwnerId",
  "mask": null,
  "order": "2",
  "placeholder": null,
  "required": false,
  "updatedAt": "2021-01-23T15:42:40.906Z",
  "valueColumn": null
}