{
  "ChildViewId": null,
  "ModelFieldId": "c6e8fe39-fc05-4aac-8ed6-d9227e8f7169",
  "OwnerId": null,
  "ViewId": "d16fb811-afe8-4d56-a007-274a9bd21445",
  "breakAfter": null,
  "canOrderBy": null,
  "canUpdate": null,
  "class": null,
  "createdAt": "2020-08-28T12:10:49.156Z",
  "deletedAt": null,
  "descriptionColumn": null,
  "filters": null,
  "findType": null,
  "format": null,
  "helperTextLabelKey": null,
  "id": "4d9bba9a-4276-4def-827a-3f8f3f98bcd0",
  "include": null,
  "labelKey": "ModelId",
  "mask": null,
  "order": "6",
  "placeholder": null,
  "required": null,
  "updatedAt": "2020-08-28T12:10:49.156Z",
  "valueColumn": null
}