{
  "ChildViewId": null,
  "ModelFieldId": "da88ec8e-a5a7-4f0a-844b-abfc61ab42d4",
  "OwnerId": null,
  "ViewId": "637e72f8-9426-4796-bfa1-b864faec1aed",
  "breakAfter": true,
  "canOrderBy": null,
  "canUpdate": null,
  "class": "is-2",
  "createdAt": "2020-08-28T12:10:49.168Z",
  "deletedAt": null,
  "descriptionColumn": null,
  "filters": null,
  "findType": null,
  "format": null,
  "helperTextLabelKey": null,
  "id": "73731dbe-3b94-472f-92ef-4424d4662c04",
  "include": null,
  "labelKey": "showOnMenu",
  "mask": null,
  "order": "5",
  "placeholder": null,
  "required": null,
  "updatedAt": "2020-08-28T12:10:49.168Z",
  "valueColumn": null
}