{
  "ChildViewId": "809ccac3-9af6-48ce-a4e7-81cdf410a1e9",
  "ModelFieldId": "88a16c50-1e72-4392-bae8-ab996a6c6e04",
  "OwnerId": null,
  "ViewId": "637e72f8-9426-4796-bfa1-b864faec1aed",
  "breakAfter": null,
  "canOrderBy": null,
  "canUpdate": null,
  "class": "is-full",
  "createdAt": "2020-08-28T12:10:49.168Z",
  "deletedAt": null,
  "descriptionColumn": null,
  "filters": null,
  "findType": null,
  "format": null,
  "helperTextLabelKey": null,
  "id": "f52663f2-9a8e-4d92-89fc-9270a8d19ab9",
  "include": null,
  "labelKey": "ViewRowActions",
  "mask": null,
  "order": "999",
  "placeholder": null,
  "required": null,
  "updatedAt": "2020-08-28T12:10:49.168Z",
  "valueColumn": null
}