{
  "ChildViewId": null,
  "ModelFieldId": "a79c9711-4efe-437e-8f4f-94c79d153f60",
  "OwnerId": null,
  "ViewId": "d16fb811-afe8-4d56-a007-274a9bd21445",
  "breakAfter": null,
  "canOrderBy": null,
  "canUpdate": null,
  "class": null,
  "createdAt": "2020-08-28T12:10:49.156Z",
  "deletedAt": null,
  "descriptionColumn": null,
  "filters": null,
  "findType": null,
  "format": null,
  "helperTextLabelKey": null,
  "id": "f9b13b28-41cc-492c-94b4-97630ad3b581",
  "include": null,
  "labelKey": "type",
  "mask": null,
  "order": "3",
  "placeholder": null,
  "required": null,
  "updatedAt": "2020-08-28T12:10:49.156Z",
  "valueColumn": null
}