{
  "MenuSectionId": "8dcd077b-b723-4b33-8c80-48702c9afdf4",
  "ModelId": "7b6a5206-e3a7-4f9f-a2bc-462253cf3b8a",
  "OwnerId": null,
  "createdAt": "2020-08-28T12:10:49.088Z",
  "deletedAt": null,
  "filters": null,
  "id": "d16fb811-afe8-4d56-a007-274a9bd21445",
  "include": [
    "ViewFields",
    "Model"
  ],
  "key": "list-views",
  "labelKey": "views",
  "showOnMenu": true,
  "slug": "/views",
  "type": "ListView",
  "updatedAt": "2020-12-03T22:44:27.002Z"
}