{
  "MenuSectionId": null,
  "ModelId": "6a70bba5-a02d-4943-b559-4cc5862d8e99",
  "OwnerId": null,
  "createdAt": "2020-08-28T12:10:49.088Z",
  "deletedAt": null,
  "filters": null,
  "id": "809ccac3-9af6-48ce-a4e7-81cdf410a1e9",
  "include": null,
  "key": "form-viewRowActions",
  "labelKey": "viewRowActions",
  "showOnMenu": false,
  "slug": null,
  "type": "FormView",
  "updatedAt": "2020-08-28T12:10:49.088Z"
}