{
  "ModelId": "87d8172b-58c9-468a-9450-923eed45806d",
  "OwnerId": null,
  "createdAt": "2020-08-28T12:10:49.064Z",
  "default": null,
  "deletedAt": null,
  "id": "c39caacc-1209-46d1-b813-122428f20589",
  "length": 255,
  "modelFieldType": "DataTypes.STRING",
  "name": "position",
  "selectOptions": null,
  "targetModel": null,
  "targetModelAlias": null,
  "type": "string",
  "updatedAt": "2020-08-28T12:10:49.064Z"
}