{
  "ModelId": "87d8172b-58c9-468a-9450-923eed45806d",
  "OwnerId": null,
  "createdAt": "2020-08-28T12:10:49.064Z",
  "default": null,
  "deletedAt": null,
  "id": "d70e7412-02e2-4a8b-8aeb-5ca489ed5493",
  "length": null,
  "modelFieldType": null,
  "name": "ViewId",
  "selectOptions": null,
  "targetModel": "View",
  "targetModelAlias": "View",
  "type": "belongsTo",
  "updatedAt": "2020-08-28T12:10:49.064Z"
}