{
  "MenuSectionId": null,
  "ModelId": "87d8172b-58c9-468a-9450-923eed45806d",
  "OwnerId": null,
  "createdAt": "2020-08-28T12:10:49.088Z",
  "deletedAt": null,
  "filters": null,
  "id": "82dd0852-c5f6-4276-ac3a-e7d69f141cc1",
  "include": null,
  "key": "form-viewActions",
  "labelKey": "viewActions",
  "showOnMenu": false,
  "slug": null,
  "type": "FormView",
  "updatedAt": "2020-08-28T12:10:49.088Z"
}