{
  "MenuSectionId": "8dcd077b-b723-4b33-8c80-48702c9afdf4",
  "ModelId": "fc30b20c-aeb5-4790-a694-87b874cbaf98",
  "OwnerId": null,
  "createdAt": "2020-08-28T12:10:48.957Z",
  "deletedAt": null,
  "filters": null,
  "id": "c897aeb3-ea2b-412c-85eb-5ca4467368e1",
  "include": null,
  "key": "form-users",
  "labelKey": "users",
  "showOnMenu": false,
  "slug": "/users_form",
  "type": "FormView",
  "updatedAt": "2021-01-23T16:29:25.576Z"
}