{
  "OwnerId": null,
  "createdAt": "2020-08-29T14:10:34.595Z",
  "deletedAt": null,
  "id": "5abcd236-670e-436f-81c7-3c3e44a5e270",
  "modelName": "Role",
  "name": "Role",
  "updatedAt": "2020-08-29T14:10:34.595Z"
}